{
  "img_path": "/home/dato/Documents/magister/code/uploads/img-1563160969324.png",
  "matrix_path": "/home/dato/Documents/magister/code/geo_symbol_recognition/recognition/am/matrix/16/",
  "data_path": "/home/dato/Documents/magister/code/geo_symbol_recognition/data/am/"
}